{
  "cordova-clipboard": {
    "source": {
      "type": "registry",
      "id": "cordova-clipboard"
    },
    "is_top_level": true,
    "variables": {}
  },
  "cordova-plugin-badge": {
    "source": {
      "type": "registry",
      "id": "cordova-plugin-badge"
    },
    "is_top_level": true,
    "variables": {}
  },
  "cordova-plugin-camera": {
    "source": {
      "type": "registry",
      "id": "cordova-plugin-camera@4.1.0"
    },
    "is_top_level": true,
    "variables": {
      "ANDROID_SUPPORT_V4_VERSION": "27.+"
    }
  },
  "cordova-plugin-device": {
    "source": {
      "type": "registry",
      "id": "cordova-plugin-device"
    },
    "is_top_level": true,
    "variables": {}
  },
  "cordova-plugin-customurlscheme": {
    "source": {
      "type": "registry",
      "id": "cordova-plugin-customurlscheme"
    },
    "is_top_level": true,
    "variables": {
      "URL_SCHEME": "bpcelearning",
      "ANDROID_SCHEME": " ",
      "ANDROID_HOST": " ",
      "ANDROID_PATHPREFIX": "/"
    }
  },
  "cordova-plugin-file": {
    "source": {
      "type": "registry",
      "id": "cordova-plugin-file@6.0.2"
    },
    "is_top_level": true,
    "variables": {}
  },
  "cordova-plugin-file-opener2": {
    "source": {
      "type": "registry",
      "id": "cordova-plugin-file-opener2"
    },
    "is_top_level": true,
    "variables": {
      "ANDROID_SUPPORT_V4_VERSION": "27.+"
    }
  },
  "cordova-plugin-file-transfer": {
    "source": {
      "type": "registry",
      "id": "cordova-plugin-file-transfer"
    },
    "is_top_level": true,
    "variables": {}
  },
  "cordova-plugin-geolocation": {
    "source": {
      "type": "registry",
      "id": "cordova-plugin-geolocation@4.0.2"
    },
    "is_top_level": true,
    "variables": {}
  },
  "cordova-plugin-globalization": {
    "source": {
      "type": "registry",
      "id": "cordova-plugin-globalization"
    },
    "is_top_level": true,
    "variables": {}
  },
  "cordova-plugin-inappbrowser": {
    "source": {
      "type": "registry",
      "id": "cordova-plugin-inappbrowser@3.2.0"
    },
    "is_top_level": true,
    "variables": {}
  },
  "cordova-plugin-ionic-keyboard": {
    "source": {
      "type": "registry",
      "id": "cordova-plugin-ionic-keyboard"
    },
    "is_top_level": true,
    "variables": {}
  },
  "cordova-plugin-local-notification": {
    "source": {
      "type": "registry",
      "id": "cordova-plugin-local-notification"
    },
    "is_top_level": true,
    "variables": {}
  },
  "cordova-plugin-media-capture": {
    "source": {
      "type": "registry",
      "id": "cordova-plugin-media-capture@3.0.3"
    },
    "is_top_level": true,
    "variables": {}
  },
  "cordova-plugin-network-information": {
    "source": {
      "type": "registry",
      "id": "cordova-plugin-network-information"
    },
    "is_top_level": true,
    "variables": {}
  },
  "cordova-plugin-screen-orientation": {
    "source": {
      "type": "registry",
      "id": "cordova-plugin-screen-orientation"
    },
    "is_top_level": true,
    "variables": {}
  },
  "cordova-plugin-splashscreen": {
    "source": {
      "type": "registry",
      "id": "cordova-plugin-splashscreen@5.0.3"
    },
    "is_top_level": true,
    "variables": {}
  },
  "cordova-plugin-statusbar": {
    "source": {
      "type": "registry",
      "id": "cordova-plugin-statusbar@2.4.3"
    },
    "is_top_level": true,
    "variables": {}
  },
  "cordova-plugin-zip": {
    "source": {
      "type": "registry",
      "id": "cordova-plugin-zip"
    },
    "is_top_level": true,
    "variables": {}
  },
  "cordova-sqlite-storage": {
    "source": {
      "type": "registry",
      "id": "cordova-sqlite-storage"
    },
    "is_top_level": true,
    "variables": {}
  },
  "es6-promise-plugin": {
    "source": {
      "type": "registry",
      "id": "es6-promise-plugin"
    },
    "is_top_level": true,
    "variables": {}
  },
  "phonegap-plugin-push": {
    "source": {
      "type": "registry",
      "id": "phonegap-plugin-push@2.3.0"
    },
    "is_top_level": true,
    "variables": {
      "ANDROID_SUPPORT_V13_VERSION": "27.+",
      "FCM_VERSION": "17.0.+"
    }
  },
  "com-darryncampbell-cordova-plugin-intent": {
    "source": {
      "type": "registry",
      "id": "com-darryncampbell-cordova-plugin-intent"
    },
    "is_top_level": true,
    "variables": {}
  },
  "cordova-plugin-admob-free": {
    "source": {
      "type": "registry",
      "id": "cordova-plugin-admob-free"
    },
    "is_top_level": true,
    "variables": {
      "ADMOB_APP_ID": "ca-app-pub-2703561262469745~1275166145"
    }
  },
  "cordova-promise-polyfill": {
    "source": {
      "type": "registry",
      "id": "cordova-promise-polyfill@~0.0.2"
    },
    "is_top_level": false,
    "variables": {}
  },
  "cordova-admob-sdk": {
    "source": {
      "type": "registry",
      "id": "cordova-admob-sdk@~0.24.1"
    },
    "is_top_level": false,
    "variables": {}
  },
  "cordova-support-google-services": {
    "source": {
      "type": "registry",
      "id": "cordova-support-google-services@~1.3.1"
    },
    "is_top_level": false,
    "variables": {}
  },
  "phonegap-plugin-multidex": {
    "source": {
      "type": "registry",
      "id": "phonegap-plugin-multidex@~1.0.0"
    },
    "is_top_level": false,
    "variables": {}
  },
  "cordova-plugin-whitelist": {
    "source": {
      "type": "registry",
      "id": "cordova-plugin-whitelist@1"
    },
    "is_top_level": true,
    "variables": {}
  }
}